{
    "schedules": [
        {
            "date": "17 May  2018",
            "sponsors": [{
                "sponsor": "Recorded Future",
                "url": "https://www.recordedfuture.com/",
                "image": "recordedfuture.png"
            }],
            "introtalks": [{
                    "title": "SecDSM 101",
                    "time": "6:00 PM",
                    "description": "A brief introduction to the group along with any announcements and general communication."
                },
                {
                    "title": "SecDSM News",
                    "time": "6:05 PM",
                    "description": "Quick Review of the Month's InfoSec news.",
                    "speaker": {
                        "name": "James Beal"
                    }
                }
            ],
            "subgroups": [{
                "title": "Des Moines Locksport",
                "description": "A side room will be dedicated to locksport."
                //          "speaker": {
                //            "name": "TOOOL",
                //            "bio": ""
                //          }
            }],
            "tooltalks": [{
                "title": "Yubikeys with crypto keys",
                    "time": "6:30 PM",
                    "description": "Building on the excellent talk from Nick Starke and Dave Liddle, this will *not* cover basics of GPG, but rather how to use them with Yubikey, and fix your Yubikey when you forget your PIN. May include demo of SSH with Yubikey.",
                    "speaker": {
                        "name": "Jared Brees",
                        "bio": "Just a geek"
                    }


            }],
            "features": [
                {
                "title": "Static Code Security Analysis (SCSA) Automation - How to Get Started and Build Results",
                "time": "7:00 pm",
                "description": "This talk will cover how Principal adopted SCSA capabilities and integrated them into our build chain processes as well as on developer desktops.  We have grown our service from scanning 140K lines of code to 47M lines of code in just one year.  How did we do that?  Come see our talk to find out!",
                    "speaker": {
                    "name": "Stacy Monroe",
                    "bio": "IT Cyber Security Analyst Senior for Principal Financial Group where I lead the Application Security Team.  We play in the spaces of static code security analysis, dynamic application testing, and network vulnerability scanning."
                    }
                },
                {
                "title": "Switches get Root Canals",
                "time": "7:40 pm",
                "description": "The release of DHS alert TA18-106 contains some strange language. In particular, it mentions that the compromise of switches and routers could have some rather dire impacts on network traffic surrounding control systems, including causing catastrophic failure in plants.  In this talk, we will explore exactly what can be achieved by compromising the administrative features of a run-of-the-mill Layer 2 network switch.  The results may be surprising -- these devices can be made into very capable packet mangling systems.  This talk will explore exactly how attacker goals can be achieved, a sample of how goals were achieved against a commercial industrial network switch, as well as offer defensive guidance for better network architecture and detection of such network malfeasance.",
                    "speaker": {
                    "name": "K. Reid Wightman",
                    "bio": "Reid is a former offensive security researcher for the US government. He now works as a defensive reverse engineer to defend control systems networks around the world, both analyzing malware that impacts operators as well as hunting for new vulnerabilities and techniques that may be used in the future."
                    }
                }

            ]
        },
        {
            "date": "21 Jun 2018",
            "sponsors": [{
                "sponsor": "Vectra AI",
                "url": "https://vectra.ai/",
                "image": "vectra.png"
            }],
            "introtalks": [{
                    "title": "SecDSM 101",
                    "time": "6:00 PM",
                    "description": "A brief introduction to the group along with any announcements and general communication."
                },
                {
                    "title": "SecDSM News",
                    "time": "6:05 PM",
                    "description": "Quick Review of the Month's InfoSec news.",
                    "speaker": {
                        "name": "James Beal"
                    }
                }
            ],
            "subgroups": [{
                "title": "Des Moines Locksport",
                "description": "A side room will be dedicated to locksport."
                //          "speaker": {
                //            "name": "TOOOL",
                //            "bio": ""
                //          }
            }],
            "tooltalks": [],
            "features": []
        },
        {
            "date": "19 Jul 2018",
            "sponsors": [{
                "sponsor": "Check Point Software Technologies",
                "url": "https://www.checkpoint.com/",
                "image": "checkpoint.png"
            }],
            "introtalks": [{
                    "title": "SecDSM 101",
                    "time": "6:00 PM",
                    "description": "A brief introduction to the group along with any announcements and general communication."
                },
                {
                    "title": "SecDSM News",
                    "time": "6:05 PM",
                    "description": "Quick Review of the Month's InfoSec news.",
                    "speaker": {
                        "name": "James Beal"
                    }
                }
            ],
            "subgroups": [{
                "title": "Des Moines Locksport",
                "description": "A side room will be dedicated to locksport."
                //          "speaker": {
                //            "name": "TOOOL",
                //            "bio": ""
                //          }
            }],
            "tooltalks": [],
            "features": []
        }
    ],
    "cons": [
        {
            "name": "THOTCON",
            "description": "THOTCON is a hacking conference based in Chicago IL, USA. This is a non-profit, non-commercial event looking to provide the best conference possible on a limited budget. ",
            "link": "http://thotcon.org/",
            "date": "May 4 - 5",
            "location": "Chicago, IL",
            "cost": "SOLD OUT",
            "details": { //optional
                "schedule": [ //optional
                    {
                        "day": "Friday",
                        "date": "May 4th",
                        "start_time": "??",
                        "end_time": "??"
                    },
                    {
                        "day": "Saturday",
                        "date": "May 5th",
                        "start_time": "??",
                        "end_time": "??"
                    }
                ],
                "travel": { //optional
                    "depart": {
                        "day": "Thurday",
                        "date": "May 3rd",
                        "time": ""
                    },
                    "return": {
                        "day": "Sunday",
                        "date": "May 5th",
                        "time": "???"
                    }
                }
            }
        },
        {
            "name": "CircleCityCon",
            "description": "Welcome agents to the 5th year of CircleCityCon. This time around our theme is centered around spycraft",
            "link": "https://circlecitycon.com/",
            "date": "Jun 1 - Jun 3",
            "location": "Indianapolis, IN",
            "cost": "$100",
            "details": { //optional
                "schedule": [ //optional
                    {
                        "day": "Friday",
                        "date": "June 1",
                        "start_time": "??",
                        "end_time": "??"
                    },
                    {
                        "day": "Saturday",
                        "date": "June 2",
                        "start_time": "??",
                        "end_time": "??"
                    },
                    {
                        "day": "Sunday",
                        "date": "June 3",
                        "start_time": "??",
                        "end_time": "??"
                    }
                ],
                "travel": { //optional
                    "depart": {
                        "day": "Thurday",
                        "date": "May 31",
                        "time": ""
                    },
                    "return": {
                        "day": "Sunday",
                        "date": "June 3",
                        "time": "???"
                    }
                }
            }
        },
        {
            "name": "ToorCamp",
            "description": "the five day, open air, tech camping event",
            "link": "https://toorcamp.toorcon.net/",
            "date": "Jun 20 - 24",
            "location": "San Juan Islands, WA",
            "cost": ""
        },
        {
            "name": "BSidesLV",
            "description": "",
            "link": "https://www.bsideslv.org/",
            "date": "Aug 7 - 8",
            "location": "Las Vegas, NV",
            "cost": ""
        },
        {
            "name": "DEF CON ",
            "description": "",
            "link": "https://www.defcon.org/",
            "date": "Aug 9 - 12",
            "location": "Las Vegas, NV",
            "cost": ""
        },
        {
            "name": "DerbyCon 8.0",
            "description": "",
            "link": "https://www.derbycon.com/",
            "date": "Oct 3 - 7",
            "location": "Louisville, KY",
            "cost": ""
        },
        {
            "name": "Wild West Hackin' Fest",
            "description": "",
            "link": "https://www.wildwesthackinfest.com/",
            "date": "Oct 25 - 26",
            "location": "Deadwood, South Dakota",
            "cost": "$250"
        }
    ],
    "monthly": [
        {
            "name": "May",
            "events": [{
                    "url": "https://secic.org",
                    "name": "SecIC",
                    "time": "May 15",
                    "description": "",
                    "geolocation": "https://www.google.com/maps/embed?pb=!1m18!1m12!1m3!1d2980.9465985949996!2d-91.53344804895069!3d41.65689578710499!2m3!1f0!2f0!3f0!3m2!1i1024!2i768!4f13.1!3m3!1m2!1s0x87e441ef5a2e433f%3A0x9f9d77f94f06db8a!2sIC+CoLab!5e0!3m2!1sen!2sus!4v1511995931168"
                }
            ]
        },
        {
            "name": "June",
            "events": [{
                    "url": "https://secic.org",
                    "name": "SecIC",
                    "time": "Jun 19",
                    "description": "",
                    "geolocation": "https://www.google.com/maps/embed?pb=!1m18!1m12!1m3!1d2980.9465985949996!2d-91.53344804895069!3d41.65689578710499!2m3!1f0!2f0!3f0!3m2!1i1024!2i768!4f13.1!3m3!1m2!1s0x87e441ef5a2e433f%3A0x9f9d77f94f06db8a!2sIC+CoLab!5e0!3m2!1sen!2sus!4v1511995931168"
                }
            ]
        },
        {
            "name": "July",
            "events": [{
                    "url": "https://secic.org",
                    "name": "SecIC",
                    "time": "Jul 17",
                    "description": "",
                    "geolocation": "https://www.google.com/maps/embed?pb=!1m18!1m12!1m3!1d2980.9465985949996!2d-91.53344804895069!3d41.65689578710499!2m3!1f0!2f0!3f0!3m2!1i1024!2i768!4f13.1!3m3!1m2!1s0x87e441ef5a2e433f%3A0x9f9d77f94f06db8a!2sIC+CoLab!5e0!3m2!1sen!2sus!4v1511995931168"
                }
            ]
        }
    ]
}
